…
# 1000 bp up and downstream
region_size <- 1000
# 50 bp windows
win_size <- 50

# add slop to the TSS, break into windows and add a group
x <- tss %>%
  bed_slop(genome, both = region_size) %>%
  bed_makewindows(genome, win_size)

x
#> # A tibble: 13,530 x 7
#>    chrom    start      end      name score strand .win_id
#>    <chr>    <int>    <int>     <chr> <chr>  <chr>   <int>
#>  1 chr22 16161065 16161115 LINC00516     3      +       1
#>  2 chr22 16161115 16161165 LINC00516     3      +       2
#>  3 chr22 16161165 16161215 LINC00516     3      +       3
#>  4 chr22 16161215 16161265 LINC00516     3      +       4
#>  5 chr22 16161265 16161315 LINC00516     3      +       5
#>  6 chr22 16161315 16161365 LINC00516     3      +       6
#>  7 chr22 16161365 16161415 LINC00516     3      +       7
#>  8 chr22 16161415 16161465 LINC00516     3      +       8
#>  9 chr22 16161465 16161515 LINC00516     3      +       9
#> 10 chr22 16161515 16161565 LINC00516     3      +      10
#> # ... with 13,520 more rows

# map signals to TSS regions and calculate summary statistics.
res <- bed_map(x, y, win_sum = sum(value, na.rm = TRUE)) %>%
  group_by(.win_id) %>%
  summarize(win_mean = mean(win_sum, na.rm = TRUE),
            win_sd = sd(win_sum, na.rm = TRUE))

res
#> # A tibble: 41 x 3
#>    .win_id win_mean    win_sd
#>      <int>    <dbl>     <dbl>
#>  1       1 100.8974  85.83423
#>  2       2 110.6829  81.13521
#>  3       3 122.9070  99.09635
#>  4       4 116.2800  96.30098
#>  5       5 116.3500 102.33773
#>  6       6 124.9048  95.08887
#>  7       7 122.9437  94.39792
#>  8       8 127.5946  91.47407
#>  9       9 130.2051  95.71309
#> 10      10 130.1220  88.82809
#> # ... with 31 more rows
…
# function to repeat interval shuffling
shuffle_intervals <- function(n, .data, genome) {
  replicate(n, bed_shuffle(.data, genome), simplify = FALSE) %>%
    bind_rows(.id = 'rep') %>%
    group_by(rep) %>% nest()
}
nreps <- 100
shuffled <- shuffle_intervals(n = nreps, repeats, genome) %>%
  mutate(jaccard = data %>%
           map(bed_jaccard, repeats) %>%
           map_dbl("jaccard"))
shuffled
#> # A tibble: 100 x 3
#>      rep                  data      jaccard
#>    <chr>                <list>        <dbl>
#>  1     1 <tibble [10,000 x 6]> 0.0004337515
#>  2     2 <tibble [10,000 x 6]> 0.0003501136
#>  3     3 <tibble [10,000 x 6]> 0.0006080318
#>  4     4 <tibble [10,000 x 6]> 0.0005768465
#>  5     5 <tibble [10,000 x 6]> 0.0002537739
#>  6     6 <tibble [10,000 x 6]> 0.0004480599
#>  7     7 <tibble [10,000 x 6]> 0.0001777942
#>  8     8 <tibble [10,000 x 6]> 0.0003448734
#>  9     9 <tibble [10,000 x 6]> 0.0003303327
#> 10    10 <tibble [10,000 x 6]> 0.0003312376
#> # ... with 90 more rows
…
